{
	"sites": [{
		"id": 0
	}, {
		"id": 1
	}, {
		"id": 2
	}, {
		"id": 3
	}, {
		"id": 4
	}, {
		"id": 5
	}, {
		"id": 6
	}, {
		"id": 7
	}],
	"rivers": [{
		"source": 0,
		"target": 1
	}, {
		"source": 1,
		"target": 2
	}, {
		"source": 0,
		"target": 7
	}, {
		"source": 7,
		"target": 6
	}, {
		"source": 6,
		"target": 5
	}, {
		"source": 5,
		"target": 4
	}, {
		"source": 4,
		"target": 3
	}, {
		"source": 3,
		"target": 2
	}, {
		"source": 1,
		"target": 7
	}, {
		"source": 1,
		"target": 3
	}, {
		"source": 7,
		"target": 5
	}, {
		"source": 5,
		"target": 3
	}],
	"mines": [1, 5]
}
